Division,WeightClassKg,Place,Name,Team,BodyweightKg,Best3SquatKg,Best3BenchKg,Best3DeadliftKg,TotalKg,Equipment,Event,Sex
Boys,51.71,1,Abe Villareal,Belton,51.62,136.08,72.57,165.56,374.21,Single-ply,SBD,M
Boys,51.71,2,Michael Guerrero,Georgetown East View,51.53,142.88,83.91,145.15,371.95,Single-ply,SBD,M
Boys,51.71,3,Christian Lopez #8,Manor,51.71,129.27,90.72,147.42,367.41,Single-ply,SBD,M
Boys,51.71,4,Jason Jones #8,Burleson,50.71,131.54,79.38,154.22,365.14,Single-ply,SBD,M
Boys,51.71,5,Chris Sage,Bryan,51.17,131.54,72.57,158.76,362.87,Single-ply,SBD,M
Boys,51.71,6,Rushi Patel,College Station,50.62,140.61,68.04,136.08,344.73,Single-ply,SBD,M
Boys,51.71,7,David Cook,Burleson Centennial,50.53,120.2,72.57,142.88,335.66,Single-ply,SBD,M
Boys,51.71,8,Therrance Soto,San Marcos,51.07,129.27,65.77,136.08,331.12,Single-ply,SBD,M
Boys,51.71,9,Isiah Reza,College Station,50.8,140.61,58.97,124.74,324.32,Single-ply,SBD,M
Boys,51.71,10,Shawn Patterson,Bastrop Cedar Creek,51.07,104.33,63.5,113.4,281.23,Single-ply,SBD,M
Boys,51.71,DQ,Eliazar Venegas,Waco Midway,50.35,,,,,Single-ply,SBD,M
Boys,51.71,DQ,Joey Gonzalez,Buda Hays,51.71,127.01,,,,Single-ply,SBD,M
Boys,55.79,1,Alec Webster,Killeen Shoemaker,55.25,192.78,122.47,195.04,510.29,Single-ply,SBD,M
Boys,55.79,2,Davion Aldridge,Hutto,55.79,179.17,102.06,217.72,498.95,Single-ply,SBD,M
Boys,55.79,3,Joey Caruso,Burleson,54.61,188.24,102.06,206.38,496.68,Single-ply,SBD,M
Boys,55.79,4,Dawson Caruso,Burleson,53.34,197.31,104.33,188.24,489.88,Single-ply,SBD,M
Boys,55.79,5,Adrian Yanez,Kyle Lehman,55.16,129.27,88.45,158.76,376.48,Single-ply,SBD,M
Boys,55.79,6,Ethan Ford,Burleson Centennial,55.16,133.81,72.57,161.03,367.41,Single-ply,SBD,M
Boys,55.79,7,Luke Merchant,San Marcos,55.52,140.61,81.65,142.88,365.14,Single-ply,SBD,M
Boys,55.79,8,Hunter Ford,Burleson Centennial,55.7,122.47,81.65,154.22,358.34,Single-ply,SBD,M
Boys,,NS,Juan Sanchez #4,Waco,,,,,,Single-ply,SBD,M
Boys,,NS,Marquez Thompkins,Temple,,,,,,Single-ply,SBD,M
Boys,55.79,DQ,Billy Pearson,Pflugerville Connally,55.34,140.61,77.11,,,Single-ply,SBD,M
Boys,55.79,DQ,Chris Guerra,Georgetown East View,55.79,,,,,Single-ply,SBD,M
Boys,55.79,DQ,Owen Mallard,Georgetown,54.98,,,,,Single-ply,SBD,M
Boys,59.87,1,David Tubig,Burleson,58.42,197.31,106.59,235.87,539.77,Single-ply,SBD,M
Boys,59.87,2,Leonardo Calderon,San Marcos,58.79,197.31,129.27,176.9,503.49,Single-ply,SBD,M
Boys,59.87,3,Zeke Martinez,San Marcos,55.97,167.83,106.59,190.51,464.93,Single-ply,SBD,M
Boys,59.87,4,Alex Mata,Lockhart,59.15,174.63,97.52,185.97,458.13,Single-ply,SBD,M
Boys,59.87,5,Christian Castillo,Belton,59.69,170.1,77.11,170.1,417.3,Single-ply,SBD,M
Boys,59.87,6,Nate Burnett,Lockhart,59.33,149.69,97.52,165.56,412.77,Single-ply,SBD,M
Boys,59.87,7,Dominic Hamilton,Georgetown East View,59.87,145.15,97.52,161.03,403.7,Single-ply,SBD,M
Boys,59.87,8,Chandler Brown,Burleson,58.6,147.42,95.25,158.76,401.43,Single-ply,SBD,M
Boys,59.87,9,Ethan Haynes,Burleson,58.69,156.49,72.57,167.83,396.89,Single-ply,SBD,M
Boys,,NS,Dwight Roberts,Temple,,,,,,Single-ply,SBD,M
Boys,59.87,DQ,Channing Christophe,Killeen Shoemaker,58.97,183.7,122.47,,,Single-ply,SBD,M
Boys,59.87,DQ,Alex Ellison,Bryan Rudder,59.33,149.69,,,,Single-ply,SBD,M
Boys,67.13,1,Kenny Miller,Manor,66.77,213.19,129.27,226.8,569.26,Single-ply,SBD,M
Boys,67.13,2,Sean Wofford,Burleson,64.32,210.92,108.86,235.87,555.65,Single-ply,SBD,M
Boys,67.13,3,Treston Womack,Waco Midway,67.13,199.58,120.2,224.53,544.31,Single-ply,SBD,M
Boys,67.13,4,JT Abshire,College Station,65.14,210.92,92.99,188.24,492.15,Single-ply,SBD,M
Boys,67.13,5,Davis Dunn,Burleson Centennial,66.41,183.7,90.72,192.78,467.2,Single-ply,SBD,M
Boys,67.13,6,Sam Muniz,San Marcos,62.05,163.29,90.72,208.65,462.66,Single-ply,SBD,M
Boys,67.13,7,Eduardo Perez,Georgetown,66.32,179.17,90.72,192.78,462.66,Single-ply,SBD,M
Boys,67.13,8,Brandon Batot,Bastrop,65.5,179.17,92.99,188.24,460.4,Single-ply,SBD,M
Boys,67.13,9,Julian Mata,Kyle Lehman,65.68,161.03,113.4,183.7,458.13,Single-ply,SBD,M
Boys,67.13,10,Trey Elkins,Austin Lake Travis,65.68,172.37,102.06,174.63,449.06,Single-ply,SBD,M
Boys,,NS,Dereon Kizzie,Pflugerville Connally,,,,,,Single-ply,SBD,M
Boys,67.13,DQ,Josh Tiha,Manor,66.95,195.04,,,,Single-ply,SBD,M
Boys,74.84,1,Taylor Bissell,Burleson,72.76,249.48,138.35,276.69,664.51,Single-ply,SBD,M
Boys,74.84,2,Omar Essix,Waco,74.75,247.21,113.4,238.14,598.74,Single-ply,SBD,M
Boys,74.84,3,Isaac Johnson,Elgin,70.85,226.8,117.93,226.8,571.53,Single-ply,SBD,M
Boys,74.84,4,Jameel Creech,Killeen Shoemaker,73.48,238.14,124.74,208.65,571.53,Single-ply,SBD,M
Boys,74.84,5,Braden Tschirhart,College Station,70.76,231.33,136.08,197.31,564.72,Single-ply,SBD,M
Boys,74.84,6,Campbell Masteller,Burleson,73.94,213.19,127.01,219.99,560.19,Single-ply,SBD,M
Boys,74.84,7,Jacob Lewallen,Belton,73.48,213.19,108.86,226.8,548.85,Single-ply,SBD,M
Boys,74.84,8,Kyle Peed,Buda Hays,73.3,208.65,129.27,204.12,542.04,Single-ply,SBD,M
Boys,74.84,9,Albian Leyva,San Marcos,70.76,195.04,124.74,213.19,532.97,Single-ply,SBD,M
Boys,74.84,10,Bradley Schwartzengraber,Copperas Cove,73.3,197.31,136.08,197.31,530.7,Single-ply,SBD,M
Boys,74.84,11,Zach Reid,Dripping Springs,72.57,210.92,122.47,195.04,528.44,Single-ply,SBD,M
Boys,,NS,Malik Stoutamire,Temple,,,,,,Single-ply,SBD,M
Boys,74.84,DQ,Ever Calderon,Buda Hays,72.03,217.72,122.47,,,Single-ply,SBD,M
Boys,82.1,1,Matt Hemphill,Dripping Springs,81.01,235.87,149.69,213.19,598.74,Single-ply,SBD,M
Boys,82.1,2,Robert Franklin,College Station A&M; Cons,79.02,219.99,142.88,229.06,591.94,Single-ply,SBD,M
Boys,82.1,3,Prudencio Calderon,San Marcos,81.65,201.85,124.74,244.94,571.53,Single-ply,SBD,M
Boys,82.1,4,Josh Van Valen,Burleson Centennial,81.01,204.12,124.74,233.6,562.45,Single-ply,SBD,M
Boys,82.1,5,Alex Aaron,Belton,81.37,215.46,124.74,222.26,562.45,Single-ply,SBD,M
Boys,82.1,6,Nathan Ellard,College Station,80.01,231.33,129.27,190.51,551.11,Single-ply,SBD,M
Boys,82.1,7,Levi Phillips,Burleson Centennial,81.47,199.58,127.01,219.99,546.58,Single-ply,SBD,M
Boys,82.1,8,Dalton Thomas,Bastrop,79.11,210.92,115.67,210.92,537.51,Single-ply,SBD,M
Boys,,NS,Teondre Parsons,Waco University,,,,,,Single-ply,SBD,M
Boys,82.1,DQ,Patrick Gaither,Waco Midway,78.47,,,,,Single-ply,SBD,M
Boys,82.1,DQ,Phillip Wilson,Pflugerville Connally,81.65,,,,,Single-ply,SBD,M
Boys,82.1,DQ,Joel Juarez,Lockhart,82.1,204.12,,,,Single-ply,SBD,M
Boys,89.81,1,Brandon Ragoonath,Burleson,87.27,267.62,170.1,288.03,725.75,Single-ply,SBD,M
Boys,89.81,2,Buddy Curry,Belton,88.36,226.8,151.95,210.92,589.67,Single-ply,SBD,M
Boys,89.81,3,Dwain Richie,Waco,88.63,226.8,111.13,240.4,578.33,Single-ply,SBD,M
Boys,89.81,4,Mark Wagner,College Station,89.36,210.92,136.08,231.33,578.33,Single-ply,SBD,M
Boys,89.81,5,Jason Jasperson,College Station A&M; Cons,89.18,219.99,120.2,226.8,566.99,Single-ply,SBD,M
Boys,89.81,6,Ben Wolz,College Station,87.36,215.46,122.47,206.38,544.31,Single-ply,SBD,M
Boys,89.81,7,Austin Naiser,Georgetown East View,84.55,185.97,136.08,197.31,519.36,Single-ply,SBD,M
Boys,89.81,DQ,Corey Mann,Temple,89.18,,,,,Single-ply,SBD,M
Boys,89.81,DQ,Da'Tavion Hall,Temple,85.91,,,,,Single-ply,SBD,M
Boys,89.81,DQ,Olisa Uzuegbunam,Manor,87.36,,,,,Single-ply,SBD,M
Boys,89.81,DQ,Justin Arismendez,Kyle Lehman,85.73,231.33,149.69,,,Single-ply,SBD,M
Boys,89.81,DQ,John Harvey,Belton,88.72,231.33,,,,Single-ply,SBD,M
Boys,99.79,1,Ernesto Ibarra,Cleburne,95.98,265.35,167.83,292.57,725.75,Single-ply,SBD,M
Boys,99.79,2,Will Efendiev,College Station,96.98,272.16,170.1,251.74,694,Single-ply,SBD,M
Boys,99.79,3,Joseph Rodriguez #5,Bastrop Cedar Creek,98.88,260.82,170.1,254.01,684.92,Single-ply,SBD,M
Boys,99.79,4,Paul Sanchez,Hutto,99.43,272.16,136.08,272.16,680.39,Single-ply,SBD,M
Boys,99.79,5,Keeland Moore,Georgetown,98.43,281.23,170.1,206.38,657.71,Single-ply,SBD,M
Boys,99.79,6,Adrian Hunter,Manor,98.34,226.8,142.88,272.16,641.83,Single-ply,SBD,M
Boys,99.79,7,Jerry Leyba,Belton,92.35,258.55,140.61,238.14,637.3,Single-ply,SBD,M
Boys,99.79,8,Hunter Creasey,Georgetown,94.98,238.14,140.61,249.48,628.23,Single-ply,SBD,M
Boys,99.79,9,Derrick Juptner,Georgetown,95.71,240.4,174.63,213.19,628.23,Single-ply,SBD,M
Boys,99.79,10,Zach Haverly,Waco Midway,95.25,222.26,133.81,235.87,591.94,Single-ply,SBD,M
Boys,99.79,11,Kevin Leonard,College Station A&M; Cons,93.26,224.53,120.2,233.6,578.33,Single-ply,SBD,M
Boys,99.79,12,Kyle Cunningham,Burleson,99.06,226.8,140.61,192.78,560.19,Single-ply,SBD,M
Boys,,NS,Ethan Scruggs,Copperas Cove,,,,,,Single-ply,SBD,M
Boys,99.79,DQ,Bailey Reid,Bryan Rudder,98.07,242.67,,,,Single-ply,SBD,M
Boys,109.77,1,Carlos Chester,Manor,108.41,283.5,174.63,294.84,752.96,Single-ply,SBD,M
Boys,109.77,2,Nathaniel Rutherford,Joshua,107.23,297.1,174.63,254.01,725.75,Single-ply,SBD,M
Boys,109.77,3,Abel Longoria,Kyle Lehman,100.88,281.23,163.29,235.87,680.39,Single-ply,SBD,M
Boys,109.77,4,Jose Hernandez #5,San Marcos,106.32,278.96,156.49,244.94,680.39,Single-ply,SBD,M
Boys,109.77,5,Thomas Godi,Burleson Centennial,108.86,263.08,147.42,229.06,639.57,Single-ply,SBD,M
Boys,109.77,6,Arturo Jaimes,Belton,105.23,251.74,122.47,258.55,632.76,Single-ply,SBD,M
Boys,109.77,7,Brandon Gangloff,Belton,105.87,235.87,156.49,226.8,619.15,Single-ply,SBD,M
Boys,109.77,8,Clifford Chambers,Bryan Rudder,108.5,297.1,120.2,197.31,614.62,Single-ply,SBD,M
Boys,109.77,9,Tyrese Beasley,Waco,108.68,265.35,136.08,204.12,605.55,Single-ply,SBD,M
Boys,109.77,DQ,Raul Sandoval,Granbury,108.59,263.08,158.76,,,Single-ply,SBD,M
Boys,109.77,DQ,Alex Ramirez,Copperas Cove,103.42,240.4,145.15,,,Single-ply,SBD,M
Boys,109.77,DQ,Carnealus Manning,Waco,107.05,,,,,Single-ply,SBD,M
Boys,124.74,1,Kody Russey,Burleson,121.65,317.51,204.12,335.66,857.29,Single-ply,SBD,M
Boys,124.74,2,Charles Owens,Bryan Rudder,124.28,362.87,181.44,272.16,816.47,Single-ply,SBD,M
Boys,124.74,3,Braden Martinez,Belton,122.47,328.85,170.1,288.03,786.98,Single-ply,SBD,M
Boys,124.74,4,Jared Spivey,Bryan,115.94,294.84,172.37,235.87,703.07,Single-ply,SBD,M
Boys,124.74,5,Roman Ruiz,Lockhart,116.03,263.08,165.56,274.42,703.07,Single-ply,SBD,M
Boys,124.74,6,Justin Hoffman,Bastrop,118.75,272.16,181.44,206.38,659.98,Single-ply,SBD,M
Boys,124.74,7,Dominic Pastucci,Pflugerville Hendrickson,112.85,242.67,142.88,249.48,635.03,Single-ply,SBD,M
Boys,124.74,8,Brian Prickett,Kyle Lehman,118.66,235.87,131.54,222.26,589.67,Single-ply,SBD,M
Boys,124.74,DQ,Seth Seale,Buda Hays,123.1,260.82,188.24,,,Single-ply,SBD,M
Boys,124.74,DQ,Josh Gordon,Elgin,112.49,226.8,151.95,,,Single-ply,SBD,M
Boys,124.74,DQ,Caleb Bishop,Lockhart,117.3,240.4,165.56,,,Single-ply,SBD,M
Boys,124.74,DQ,Jordan Barrs,Pflugerville,122.11,,,,,Single-ply,SBD,M
Boys,124.74+,1,Jordan Seymore,College Station,149.59,340.19,174.63,244.94,759.77,Single-ply,SBD,M
Boys,124.74+,2,Javon Chambers,Belton,137.62,331.12,174.63,240.4,746.16,Single-ply,SBD,M
Boys,124.74+,3,Eliahs Williams,Burleson,128.37,249.48,151.95,263.08,664.51,Single-ply,SBD,M
Boys,124.74+,4,Edward Camacho,Lockhart,136.53,256.28,151.95,244.94,653.17,Single-ply,SBD,M
Boys,124.74+,5,Domenico Valdespino,Pflugerville Hendrickson,132,272.16,133.81,244.94,650.91,Single-ply,SBD,M
Boys,124.74+,6,Rae Winter,Burleson,154.67,238.14,151.95,249.48,639.57,Single-ply,SBD,M
Boys,124.74+,7,Fernando Sanchez,Granbury,132.72,254.01,145.15,226.8,625.96,Single-ply,SBD,M
Boys,124.74+,8,Marty Rodriguez,Hutto,130,258.55,129.27,215.46,603.28,Single-ply,SBD,M
Boys,124.74+,9,Joe Colurciello,Lockhart,128.91,215.46,149.69,226.8,591.94,Single-ply,SBD,M
Boys,124.74+,10,Anthony Rishton,Georgetown,142.52,242.67,147.42,199.58,589.67,Single-ply,SBD,M
Boys,,NS,Chris Robles,Cleburne,,,,,,Single-ply,SBD,M
Boys,,NS,Anthony Hill,Manor,,,,,,Single-ply,SBD,M
Boys,124.74+,DQ,Marquis Gardner,Manor,148.78,,,,,Single-ply,SBD,M
Boys,124.74+,DQ,Jonathan Esqueda,Waco,137.17,281.23,124.74,,,Single-ply,SBD,M
