Name,WeightClassKg,BodyweightKg,Squat1Kg,Squat2Kg,Squat3Kg,Best3SquatKg,Bench1Kg,Bench2Kg,Bench3Kg,Best3BenchKg,Deadlift1Kg,Deadlift2Kg,Deadlift3Kg,Best3DeadliftKg,TotalKg,Event,Equipment,Sex,Division,Place
Miguel Castro #1,52,,127.5,147.5,160,160,85,-100,-100,85,212.5,-222.5,-222.5,212.5,457.5,SBD,Single-ply,M,Open,1
Howard Bates,52,,125,-137.5,-137.5,125,82.5,87.5,-92.5,87.5,150,157.5,165,165,377.5,SBD,Single-ply,M,Open,2
Joe Catalfamo,56,,170,180,-192.5,180,110,120,122.5,122.5,175,187.5,-202.5,187.5,490,SBD,Single-ply,M,Open,1
Mark Jones #7,56,,160,170,175,175,115,122.5,127.5,127.5,160,-170,-170,160,462.5,SBD,Single-ply,M,Open,2
Brett Bozzelli,56,,125,135,145,145,105,112.5,-117.5,112.5,157.5,182.5,-187.5,182.5,440,SBD,Single-ply,M,Open,3
James Benemerito,60,,185,202.5,-215,202.5,120,-125,-125,120,210,225,230,230,552.5,SBD,Single-ply,M,Open,1
Ron Hoff,60,,185,192.5,200,200,127.5,132.5,135,135,205,215,-220,215,550,SBD,Single-ply,M,Open,2
Bradford Olson,60,,17.5,210,-220,210,-120,120,-125,120,205,215,-217.5,215,545,SBD,Single-ply,M,Open,3
Brian Sato,60,,190,197.5,205,205,107.5,120,122.5,122.5,190,200,-205,200,527.5,SBD,Single-ply,M,Open,4
Mike Stein,60,,157.5,185,192.5,192.5,107.5,112.5,-115,112.5,157.5,185,195,195,500,SBD,Single-ply,M,Open,5
Kim Do,60,,182.5,197.5,-202.5,197.5,92.5,107.5,-110,107.5,182.5,-197.5,-197.5,182.5,487.5,SBD,Single-ply,M,Open,6
Ray Benemerito,67.5,,245,255,260,260,152.5,160,-162.5,160,260,272.5,-282.5,272.5,692.5,SBD,Single-ply,M,Open,1
Joe Braco,67.5,,215,237.5,-245,237.5,-140,-140,140,140,245,-282.5,,245,622.5,SBD,Single-ply,M,Open,2
Chris Boillot,67.5,,240,-252.5,252.5,252.5,137.5,-142.5,-142.5,137.5,220,-235,-235,220,610,SBD,Single-ply,M,Open,3
Mark Ofori-Kyei,67.5,,-207.5,-207.5,207.5,207.5,145,152.5,-157.5,152.5,207.5,212.5,-217.5,212.5,572.5,SBD,Single-ply,M,Open,4
Louie Sampedro,67.5,,200,212.5,217.5,217.5,117.5,125,-127.5,125,210,227.5,-232.5,227.5,570,SBD,Single-ply,M,Open,5
Mike Brana,67.5,,192.5,205,210,210,127.5,132.5,-137.5,132.5,210,-225,-227.5,210,552.5,SBD,Single-ply,M,Open,6
Dennis Belt,67.5,,182.5,-190,190,190,115,-117.5,117.5,117.5,232.5,240,-245,240,547.5,SBD,Single-ply,M,Open,7
Dan Sorenson,67.5,,207.5,-220,-220,207.5,-122.5,125,-132.5,125,205,212.5,-220,212.5,545,SBD,Single-ply,M,Open,8
Larry Maile,75,,250,260,-265,260,-160,160,165,165,245,250,262.5,262.5,687.5,SBD,Single-ply,M,Open,1
Gerry Raccio,75,,222.5,-232.5,-235,222.5,-162.5,162.5,-170,162.5,235,247.5,-260,247.5,632.5,SBD,Single-ply,M,Open,2
Kevin Dittler,75,,220,232.5,-237.5,232.5,137.5,145,-150,145,220,232.5,237.5,237.5,615,SBD,Single-ply,M,Open,3
Jim Reinardy,75,,232.5,-255,-255,232.5,110,117.5,-122.5,117.5,230,240,250,250,600,SBD,Single-ply,M,Open,4
Dan Arellano,75,,225,235,-237.5,235,110,-115,115,115,220,230,235,235,585,SBD,Single-ply,M,Open,5
Tony Pennington,75,,192.5,-200,-200,192.5,-135,135,-142.5,135,215,-227.5,-227.5,215,542.5,SBD,Single-ply,M,Open,6
Erik Potter,75,,232.5,-242.5,-242.5,232.5,142.5,-147.5,-147.5,142.5,-215,-215,-215,,,SBD,Single-ply,M,Open,DQ
Don Sherwood,75,,-215,-215,-215,,,,,,,,,,,SBD,Single-ply,M,Open,DQ
Curtis Payne,82.5,,285,-305,305,305,170,175,-177.5,175,320,-335,-335,320,800,SBD,Single-ply,M,Open,1
Brian Skibyak,82.5,,-245,-245,245,245,150,167.5,-172.5,167.5,-287.5,-287.5,287.5,287.5,700,SBD,Single-ply,M,Open,2
Robert Ethington,82.5,,265,270,-275,270,130,-135,-135,130,267.5,280,-285,280,680,SBD,Single-ply,M,Open,3
Ed Childs,82.5,,242.5,-260,-260,242.5,165,-172.5,-172.5,165,255,-262.5,-272.5,255,662.5,SBD,Single-ply,M,Open,4
Shane Gesbeck,82.5,,220,230,232.5,232.5,130,137.5,-142.5,137.5,237.5,247.5,-257.5,247.5,617.5,SBD,Single-ply,M,Open,5
Tony Pechthalt,82.5,,215,-222.5,-222.5,215,150,-165,-165,150,242.5,250,-260,250,615,SBD,Single-ply,M,Open,6
Dennis Brady,82.5,,-232.5,-232.5,-232.5,,,,,,,,,,,SBD,Single-ply,M,Open,DQ
Curtis Brown,82.5,,-205,-205,-205,,,,,,,,,,,SBD,Single-ply,M,Open,DQ
Richard Wenner,90,,277.5,292.5,-300,292.5,187.5,-197.5,197.5,197.5,277.5,287.5,290,290,780,SBD,Single-ply,M,Open,1
Ed Riley #2,90,,-272.5,272.5,-287.5,272.5,165,-170,170,170,305,312.5,-320,312.5,755,SBD,Single-ply,M,Open,2
Bill Schmidt,90,,237.5,-295,295,295,157.5,175,-177.5,175,282.5,-307.5,-310,282.5,752.5,SBD,Single-ply,M,Open,3
Gary Dingle,90,,-285,-285,285,285,162.5,-170,-170,162.5,285,292.5,-297.5,292.5,740,SBD,Single-ply,M,Open,4
Doug Parish,90,,-282.5,282.5,-305,282.5,162.5,172.5,-177.5,172.5,282.5,-305,-305,282.5,737.5,SBD,Single-ply,M,Open,5
Quinn Millington,90,,260,272.5,-282.5,272.5,140,147.5,155,155,265,280,-285,280,707.5,SBD,Single-ply,M,Open,6
Dale Greenwald,90,,-240,240,,240,-150,157.5,-160,157.5,-267.5,267.5,,267.5,665,SBD,Single-ply,M,Open,7
Roy Marshall,90,,230,-247.5,-247.5,230,137.5,-145,-145,137.5,257.5,-275,,257.5,625,SBD,Single-ply,M,Open,8
Dave Thornton,90,,-230,230,245,245,122.5,130,-137.5,130,232.5,250,-265,250,625,SBD,Single-ply,M,Open,9
Harvey Green,90,,237.5,-242.5,242.5,242.5,-165,-165,-165,,,,,,,SBD,Single-ply,M,Open,DQ
Shawn Cain,100,,292.5,305,-312.5,305,190,200,205,205,295,,320,320,830,SBD,Single-ply,M,Open,1
Mark Girton,100,,295,305,310,310,205,217.5,-225,217.5,282.5,300,-302.5,300,827.5,SBD,Single-ply,M,Open,2
Willie Austin,100,,-320,320,-335,320,-170,170,-182.5,170,-320,320,-340,320,810,SBD,Single-ply,M,Open,3
Steve Downs,100,,262.5,277.5,290,290,152.5,162.5,-170,162.5,300,320,-327.5,320,772.5,SBD,Single-ply,M,Open,4
Darren Robinson,100,,-272.5,272.5,-285,272.5,-190,190,-195,190,272.5,287.5,-295,287.5,750,SBD,Single-ply,M,Open,5
Mike Gessini,100,,250,275,-290,275,205,210,-215,210,-250,250,-255,250,735,SBD,Single-ply,M,Open,6
Rick Endsley,100,,230,245,-257.5,245,145,152.5,-160,152.5,245,257.5,-265,257.5,655,SBD,Single-ply,M,Open,7
Dave Dunbar,100,,-235,235,240,240,132.5,-137.5,137.5,137.5,245,265,-277.5,265,642.5,SBD,Single-ply,M,Open,8
Dave Kosten,100,,-230,-230,-230,,,,,,,,,,,SBD,Single-ply,M,Open,DQ
Andrew Stewart #2,110,,332.5,-365,370,370,-220,220,227.5,227.5,357.5,370,-372.5,370,967.5,SBD,Single-ply,M,Open,1
David Poss,110,,-290,290,-295,290,-200,200,205,205,275,287.5,-292.5,287.5,782.5,SBD,Single-ply,M,Open,2
Scott Antczak,110,,282.5,302.5,-310,302.5,165,-172.5,-172.5,165,-282.5,282.5,297.5,297.5,765,SBD,Single-ply,M,Open,3
Carl Tillman,110,,295,-320,-320,295,170,177.5,-182.5,177.5,265,275,280,280,752.5,SBD,Single-ply,M,Open,4
Mike Foggia,110,,-262.5,275,-282.5,275,192.5,202.5,-210,202.5,260,272.5,-277.5,272.5,750,SBD,Single-ply,M,Open,5
Steve Pincock,110,,282.5,300,310,310,-147.5,150,155,155,262.5,-272.5,-272.5,262.5,727.5,SBD,Single-ply,M,Open,6
Dave Mitchell,110,,-250,250,262.5,262.5,182.5,190,195,195,227.5,-242.5,255,255,712.5,SBD,Single-ply,M,Open,7
Mike O'Hearn,110,,-272.5,272.5,295,295,-177.5,-177.5,-177.5,,,,,,,SBD,Single-ply,M,Open,DQ
Steve Walsh,110,,-285,-285,-285,,,,,,,,,,,SBD,Single-ply,M,Open,DQ
Terrance Brooks,125,,287.5,310,-320,310,190,192.5,197.5,197.5,272.5,312.5,-325,312.5,820,SBD,Single-ply,M,Open,1
Tom Giordani,125,,-280,280,-305,280,185,-190,-190,185,262.5,285,-295,285,750,SBD,Single-ply,M,Open,2
Mike Adelman,125,110.22,240,-262.5,-267.5,240,150,162.5,-175,162.5,240,260,267.5,267.5,670,SBD,Single-ply,M,Open,3
Mike Hall,125+,185.97,395,422.5,-432.5,422.5,260,277.5,287.5,287.5,227.5,337.5,350,350,1060,SBD,Single-ply,M,Open,1
Pat Meech,125+,,305,322.5,-335,322.5,165,170,-175,170,305,320,-325,320,812.5,SBD,Single-ply,M,Open,2
Hank Houston,125+,,250,265,-282.5,265,192.5,200,-205,200,277.5,285,-287.5,285,750,SBD,Single-ply,M,Open,3
John Razo,125+,,250,-260,260,260,205,-212.5,-212.5,205,250,265,-287.5,265,730,SBD,Single-ply,M,Open,4
Scott Safe,125+,,-330,-330,-330,,,,,,,,,,,SBD,Single-ply,M,Open,DQ
