﻿                                        AMERICAN DRUG FREE POWERLIFTING                                                                                                                                            Page 3
                                        1995 NATIONAL CHAMPIONS                                           275#
                                                                                                          Contreras, R          287.5                                         180.0                       242.5    710.0
                                                                                                          JUNIORS 148#
                                                                                                          Llewellyn, S          185.0                                         110.0                       215.0    510.0
                Y 8                                                       9, 1995..- SHARON, PA           165#
                                                                                                          Turner, C             282.5*                                        170.0*                      282.5*   735.0*
                14-15 AGE GROUP 123#
                                                                                                          Johns, C              252.5                                         155.0                       250.0    657.5
Hoover, 13      117.5                   77.5*                             132.5                   327.5
                                                                                                          Thomas, E             237.5                                         122.5                       262.5    622.5
                132# Bower, M 110.0     70.0                              132.5                   312.5
                                                                                                          Butchar,1             217.5                                         150.0                       255.0    622.5
181# Lay, R     177.5                   112.5                             195.0                   485.0   Farmer, B             167.5                                         102.5                       205.0    475.0
                198# Stevens, J 190.0   130.0*                            182.5                   502.5   181#
242#
                                                                                                          Baumgart, J           272.5                                         177.5                       250.0    700.0
Butler, J       232.5                   145.0                             210.0                   587.5   Francese, S           265.0                                         165.0                       250.0    680.0
Bower, J        235.0*                  125.0                             195.0                   555.0   Zsido, R              227.5                                         145.0                       225.0    597.5
                16-17 AGE GROUP 132#                                                                      Richardson, K         225.0                                         130.0                       200.0    555.0
O'Connell, B    165.0                   82.5                              165.0                   412.5
                                                                                                          198#
Potter, T       135.0                   110.0*                            152.5                   397.5
                                                                                                          Balis, M              287.5*                                        182.5*                      285.0*   755.0*
148#                                                                                                      Eaves, A              220.0                                         145.0                       200.0    565.0
Koch, R         177.5                   115.0                             192.5                   485.0   220#
Conklin, L      167.5                   110.0                             192.5                   470.0   Coulter, M            282.5                                         210.0                       277.5    770.0
165#
                                                                                                          Cahill, J             277.5                                         170.0                       292.5    740.0
Walters, J      217.5                   140.0                             220.0                   577.5
                                                                                                          Davenport, C          265.0                                         182.5                       265.0    712.5
Decker, J       192.5                   120.0                             202.5                   515.0   275# Davis, W 297.5                                                 197.5                       272.5    767.5
Rhodes, C       205.0                   92.5                              195.0                   492.5   319#
Conti, S        182.5                   102.5                             190.0                   475.0
                                                                                                          Hulslander, D         280.0                                         200.0*                      265.0*   745.0*
Napolitano, J   165.0                   102.5                             205.0                   472.5
                                                                                                          Stone, A              295.0*                                        185.0                       257.5    737.5
Ballard, R      182.5                   90.0                              192.5                   465.0
                                                                                                                                * Pending Teenage & Junior American Records
181#
Dhein, J        227.5                   132.5                             205.0                   565.0
Steiner, E      217.5                   112.5                             227.5                   557.5
Powell, A       192.5                   117.5                             190.0                   500.0
198#
Follansbee, D   245.0*                  125.0                             237.5                   607.5
Avilla, K       237.5                   135.0                             225.0                   597.5
Soliman, D      205.0                   122.5                             210.0                   537.5
220#
Koo, E          200.0                   137.5                             235.0                   572.5
Medas, C        222.5                   105.0                             207.5                   535.0
Garofalo, F     192.5                   112.5                             205.0                   510.0                                                                       JANUARY 20-21, 1996
275# Bowe, J    252.5                   130.0                             205.0                   587.5
                18-19 AGE GROUP 148#
                                                                                                                                                                              WILKES BARRE, PA
Taylor, D       217.5                   115.0                             220.0                   552.5
Politino, C     170.0                   125.0                             142.5                   437.5
165#
Rhen, J         227.5                   157.5                             222.5                   607.5
                                                                                                          WD                                                                  F/
Wolter, J       225.0                   152.5                             212.5                   590.0
Lofgren, A      197.5                   100.0                             202.5                   500.0
Martin, A       162.5                   125.0                             182.5                   470.0                                                                       "OPPORTUNITY FOR
198#
Mann, S         265.0                   157.5                             245.0                   667.5
                                                                                                                                                                              WORLD RECO                           S"
Rivano, A       227.5                   182.5                             245.0                   655.0
Smalls, F       237.5                   172.5                             242.5                   652.5
Searles, R      242.5                   162.5                             242.5                   647.5                                                                       A BOB GAYNOR PRODUCTION
Kenny, C        240.0                   122.5                             252.5                   615.0
220#                                                                                                                                                                          19 SUNRISE DRIVE
Altschuler, A   230.0                   150.0                             235.0                   615.0                                                                       MOUNTAINTOP PA 18707
242#
                                                                                                                                                                              717-474-6111/717-823-6994
Stiverson, A    280.0                   167.5                             257.5                   705.0
